Compute the preference order for predictors based on a user-defined function. — preference_order • collinear
…
#check their correlations
selected.predictors.cor <- cor_df(
  df = vi,
  response = "vi_mean",
  predictors = selected.predictors
)

#all correlations below max_cor
selected.predictors.cor
#> # A tibble: 55 × 3
#>    x                      y                      correlation
#>    <chr>                  <chr>                        <dbl>
#>  1 soil_temperature_max   koppen_zone                 -0.72 
#>  2 soil_temperature_range koppen_zone                 -0.698
#>  3 swi_range              koppen_zone                  0.677
#>  4 soil_sand              soil_clay                   -0.675
#>  5 soil_temperature_mean  soil_temperature_max         0.586
#>  6 soil_soc               soil_temperature_max        -0.578
#>  7 topo_slope             topo_diversity               0.538
#>  8 swi_range              soil_temperature_range      -0.5  
#>  9 soil_temperature_range soil_temperature_max         0.481
#> 10 soil_temperature_mean  soil_soc                    -0.431
#> # ℹ 45 more rows
…
